cell_id_1,cell_id_2,cell_id_3,cell_id_4,coordinate_x,coordinate_y,coordinate_z
1,32,47,55,34.125,37.625,41.125
6,12,35,43,19.5,31.375,33.125
1,22,27,49,28.375,25.125,10.875
1,25,30,58,39.625,40.625,24.875
8,20,33,60,19.375,30.875,22.5
1,18,36,43,18.375,23.375,41.625
2,4,6,12,25.125,29.125,29.875
3,26,48,63,38.375,29.125,29.375
1,25,30,48,42.875,36.375,24.875
10,30,38,58,33.375,36.375,24.25
1,32,47,59,35.875,32.375,42.875
1,41,44,57,31.375,13.625,18.875
4,7,8,50,18.125,29.625,24.875
3,9,14,26,36.625,28.875,33.75
8,33,50,60,18.375,30.125,24.375
8,16,19,21,24.875,37.875,25.875
5,22,56,62,33.875,26.625,19.375
13,15,38,62,30.375,33.375,19.375
14,31,45,55,28.375,36.875,33.875
3,9,26,52,36.875,28.375,33.625
1,19,37,60,14.875,39.375,27.625
3,26,52,63,37.375,27.625,32.625
2,3,5,11,29.625,24.875,27.625
1,16,19,34,21.625,43.625,23.375
7,17,44,46,22.0,21.875,21.875
13,15,38,61,30.375,33.5,19.375
13,20,34,61,23.75,35.125,21.375
4,6,11,51,21.875,22.625,34.375
1,17,44,46,18.125,17.875,17.875
1,40,51,64,23.375,12.875,35.125
4,11,46,51,20.625,20.875,29.625
6,18,36,43,22.125,25.25,36.375
2,6,9,14,28.375,28.125,31.375
1,18,36,51,19.125,20.75,41.125
18,39,46,51,17.625,19.875,30.375
2,6,9,11,27.125,26.0,30.875
3,23,56,63,37.625,24.125,25.875
5,22,49,62,31.125,27.875,17.875
6,12,14,45,26.125,33.375,36.625
1,40,46,51,18.875,13.375,30.375
2,5,7,13,27.125,27.375,24.625
1,23,41,57,34.875,13.875,20.375
3,23,56,57,35.75,23.125,22.625
2,10,12,14,28.125,31.125,29.625
3,52,54,63,36.625,23.625,32.375
1,36,47,59,28.875,28.375,45.375
1,40,41,64,31.375,11.375,32.125
13,17,27,49,24.875,27.375,17.875
2,5,7,11,26.875,24.875,26.625
10,15,25,30,35.375,35.125,26.125
3,5,56,57,35.625,23.125,22.625
10,12,21,31,26.875,38.375,29.625
12,19,24,37,21.125,35.75,30.125
1,29,50,53,10.625,30.375,29.125
4,18,29,39,18.125,25.375,30.625
5,23,56,57,35.625,23.125,22.625
14,28,45,47,26.625,33.25,37.125
14,25,26,32,35.875,33.625,32.25
16,20,34,61,22.875,36.875,19.875
1,35,37,43,13.875,33.375,36.625
5,7,13,27,25.625,26.375,17.875
8,19,37,60,19.875,34.875,27.875
1,17,20,49,21.375,30.125,12.125
1,30,56,62,41.375,31.625,17.625
1,24,35,37,17.0,39.875,34.375
12,24,35,37,21.375,35.375,31.875
13,49,61,62,29.875,32.375,18.625
2,4,7,8,24.625,28.625,26.875
1,29,39,50,10.625,26.125,29.375
12,14,31,45,28.125,36.875,33.875
4,6,37,43,19.375,31.125,33.0
5,13,15,49,30.375,28.375,17.875
15,30,38,62,33.375,33.625,20.875
1,18,29,39,11.625,23.875,32.375
1,20,33,60,13.875,32.625,18.875
1,19,21,24,23.375,44.875,29.375
4,29,50,53,17.625,29.625,28.625
7,33,39,46,19.375,23.5,23.875
1,16,19,21,22.875,44.375,24.625
2,3,10,15,31.125,29.625,28.375
1,30,38,62,36.875,37.125,16.125
5,22,44,57,29.125,21.0,20.125
8,13,20,34,22.5,34.5,21.875
1,18,39,51,14.625,17.375,31.125
7,8,20,33,19.625,30.625,22.25
8,37,53,60,19.125,33.625,27.875
3,5,11,41,32.875,18.875,26.875
3,9,11,54,33.375,19.375,30.625
3,9,52,54,36.125,23.375,32.625
1,18,29,43,12.625,25.875,35.875
8,12,19,21,25.125,38.125,27.75
5,11,41,44,27.5,18.125,24.625
10,15,30,38,33.375,36.0,23.875
13,38,61,62,30.375,33.375,19.25
2,8,10,12,27.125,31.375,27.875
4,29,37,43,19.125,30.875,32.875
5,15,56,62,33.875,26.625,19.375
10,25,30,58,35.125,35.625,26.125
9,42,54,64,31.875,20.125,34.0
2,6,12,14,27.375,29.875,30.875
6,28,35,43,21.625,30.875,35.875
8,19,34,60,20.125,35.125,27.125
9,42,52,54,34.375,22.625,34.625
10,21,31,58,30.125,38.375,29.125
11,36,51,64,25.125,21.625,35.875
8,10,13,16,26.625,37.375,23.75
9,36,47,59,28.625,28.125,38.375
2,10,13,15,28.625,30.875,25.875
3,11,41,54,33.125,18.875,28.75
6,12,35,37,19.5,31.5,33.125
6,9,36,47,28.625,28.125,38.375
8,13,16,34,23.875,35.875,22.5
14,45,47,55,28.875,34.875,36.0
1,17,27,49,22.875,27.125,11.375
6,12,35,45,24.125,33.375,36.125
6,12,37,43,19.375,31.375,33.125
1,22,56,62,37.875,25.625,13.875
6,36,47,59,28.625,28.125,38.375
1,33,39,50,11.375,24.875,23.375
4,6,18,43,19.875,26.125,34.375
1,20,34,60,15.75,36.875,19.375
1,49,61,62,31.125,35.375,12.5
10,31,55,58,31.625,37.625,30.625
1,25,26,48,44.375,33.625,29.875
6,9,14,47,28.875,28.625,38.375
1,22,44,57,30.0,16.375,15.125
1,26,48,63,45.125,29.625,30.375
1,33,39,46,13.625,20.625,21.375
15,30,48,56,36.875,30.375,22.625
6,14,28,45,26.375,33.125,36.875
1,28,36,43,19.125,26.375,42.875
14,26,32,52,35.875,29.375,34.875
11,40,51,64,25.125,18.875,32.375
8,12,19,37,20.625,35.375,29.375
1,26,52,63,43.625,27.125,35.625
6,28,36,47,27.625,28.625,38.375
13,15,49,62,30.375,30.875,18.125
5,15,49,62,31.125,28.125,17.875
1,21,38,58,31.125,44.25,22.375
1,23,41,54,37.125,13.125,28.375
9,14,52,59,34.875,28.875,35.875
1,29,37,43,13.125,32.625,35.875
1,36,51,64,23.375,17.5,41.125
2,3,9,14,31.125,28.375,29.875
5,41,44,57,30.125,19.375,22.375
5,15,22,62,32.875,27.125,18.875
3,5,23,56,35.625,23.125,22.625
2,4,8,12,24.875,29.375,28.875
10,16,21,38,29.625,37.875,24.5
4,18,29,43,18.625,26.875,32.875
1,23,56,63,43.875,21.625,24.625
1,29,37,53,11.625,33.125,31.375
1,26,32,52,40.875,30.375,39.375
12,21,24,31,25.875,38.125,29.625
4,18,39,51,19.75,21.625,29.875
5,15,22,56,34.0,26.5,19.5
1,21,24,31,24.625,44.875,30.875
14,25,32,55,34.5,35.125,32.375
9,36,42,64,27.625,21.875,36.625
1,16,21,38,30.875,44.375,22.375
2,7,8,13,25.25,28.875,25.875
3,5,23,41,33.125,18.875,26.625
3,23,41,54,33.625,19.125,28.375
1,17,33,46,15.25,20.125,19.125
15,22,56,62,34.0,26.625,19.375
1,23,54,63,42.375,18.375,28.875
1,24,35,45,20.375,40.625,37.125
3,10,15,25,37.375,32.625,29.125
4,29,39,50,17.625,26.875,28.875
1,50,53,60,11.875,31.875,22.875
3,15,48,56,37.625,28.375,24.0
4,8,12,37,18.875,32.125,30.625
11,41,54,64,31.125,18.375,30.875
4,6,12,37,19.375,31.375,32.875
5,7,11,44,24.625,19.125,23.875
1,22,27,44,28.625,17.125,14.375
1,31,45,55,28.625,42.375,37.875
9,42,52,59,33.375,24.875,36.625
10,25,55,58,33.625,36.625,30.875
16,21,38,58,30.125,39.125,24.125
7,8,13,20,20.125,30.625,21.875
6,12,28,35,23.75,33.125,36.125
1,25,32,55,38.625,39.875,35.125
1,33,50,60,12.125,31.5,21.875
1,25,55,58,37.125,42.125,32.5
1,45,47,55,29.375,39.375,41.125
11,40,44,46,24.375,18.375,25.625
5,23,41,57,32.125,19.375,23.375
5,22,27,49,28.125,26.375,17.625
6,9,11,36,25.625,22.375,36.375
6,28,35,45,24.125,33.375,36.375
7,11,44,46,23.625,19.125,24.625
13,17,20,49,23.875,29.375,18.375
15,25,30,48,37.125,33.125,26.125
1,42,54,64,34.25,14.875,37.625
11,40,46,51,22.375,19.125,29.375
14,32,52,59,34.875,29.375,35.875
1,52,54,63,42.125,20.625,35.125
4,39,46,51,19.875,21.375,29.875
1,22,56,57,38.125,24.125,14.375
1,25,26,32,40.875,37.375,34.875
13,20,49,61,24.625,31.125,18.375
6,11,36,51,24.375,22.375,36.125
12,35,37,43,19.375,31.375,33.125
8,50,53,60,18.125,30.375,25.0
1,38,61,62,31.875,36.875,13.625
4,8,50,53,17.875,30.125,25.875
3,48,56,63,38.125,26.125,26.125
1,17,27,44,20.375,18.5,15.625
1,24,31,45,24.625,43.375,35.375
1,32,52,59,39.375,30.125,41.0
3,10,14,25,37.125,32.5,30.125
9,14,26,52,36.375,28.875,34.375
1,20,34,61,21.125,39.625,17.125
3,14,25,26,37.25,32.375,30.375
9,14,47,59,29.25,28.625,38.375
1,39,46,51,14.625,17.375,30.875
10,12,14,31,28.625,37.125,32.875
2,4,6,11,25.875,26.125,30.375
5,22,27,44,28.375,21.375,19.875
7,17,33,46,20.125,23.125,22.625
5,22,56,57,34.125,25.625,19.625
4,6,18,51,21.375,22.875,34.375
8,10,16,21,26.125,38.125,25.625
12,24,31,45,25.875,37.375,32.625
1,28,36,47,27.625,29.125,45.375
3,23,54,63,36.875,22.125,28.625
6,18,36,51,22.625,23.625,36.125
1,28,45,47,25.625,36.625,42.875
1,20,49,61,22.625,32.875,12.125
10,21,38,58,29.875,37.875,24.625
1,21,31,58,31.625,45.0,29.875
2,3,5,15,30.75,27.125,25.875
6,14,28,47,26.625,32.625,37.375
14,32,47,55,31.625,33.875,36.125
6,28,36,43,22.625,27.125,37.125
7,13,17,27,24.625,27.0,18.125
7,13,17,20,21.75,29.125,19.625
8,16,19,34,24.125,37.375,25.125
9,11,36,64,26.375,21.625,36.375
3,25,26,48,37.875,31.625,29.125
8,10,12,21,25.875,38.125,27.625
7,17,20,33,20.625,28.875,20.375
6,35,37,43,19.375,31.375,33.125
3,5,23,57,35.5,22.875,22.75
13,15,61,62,30.375,33.25,19.25
12,19,21,24,25.125,38.125,28.875
13,16,38,61,28.375,36.125,21.125
2,3,9,11,29.875,25.125,29.0
12,24,35,45,23.25,35.625,33.625
1,23,56,57,40.875,20.125,19.375
1,31,55,58,34.125,43.625,32.375
11,40,41,44,26.875,17.875,25.375
1,22,49,62,33.125,27.625,11.375
1,30,48,56,42.375,31.625,18.875
6,9,47,59,28.75,28.25,38.375
1,19,24,37,16.625,40.625,31.625
5,13,27,49,26.75,26.875,17.625
5,7,27,44,24.875,21.75,20.125
15,30,56,62,36.125,30.375,21.625
2,5,13,15,28.875,28.125,24.625
1,48,56,63,44.875,24.875,24.875
4,7,11,46,20.625,20.625,27.375
1,40,44,46,22.125,12.125,24.0
13,16,34,61,23.875,35.375,21.625
2,4,7,11,25.375,25.625,27.875
8,20,34,60,20.625,33.375,22.625
4,8,37,53,18.375,31.875,29.5
9,36,42,59,29.625,25.375,38.125
1,19,34,60,15.375,39.875,26.375
1,40,41,44,26.125,11.125,23.625
10,13,16,38,28.875,36.875,22.5
14,32,47,59,32.75,30.625,37.125
3,15,25,48,37.625,31.875,28.125
1,28,35,45,21.875,36.875,41.625
4,29,37,53,18.125,31.125,30.125
1,17,20,33,16.125,29.375,15.375
2,3,10,14,31.125,29.625,28.875
1,37,53,60,13.375,37.375,27.875
1,16,34,61,21.25,40.125,17.375
1,28,35,43,17.5,32.625,41.125
9,11,54,64,31.625,19.375,32.625
1,30,38,58,37.125,41.5,21.875
6,9,36,59,28.625,27.625,38.375
1,36,42,59,30.625,23.625,44.625
1,36,42,64,27.25,18.125,42.375
2,8,10,13,27.625,31.125,26.375
4,7,39,46,19.125,22.375,26.625
10,14,25,55,34.25,35.5,31.875
11,40,41,64,30.125,18.125,30.625
1,16,38,61,28.375,41.125,16.625
15,38,61,62,30.375,33.375,19.375
10,13,15,38,29.875,36.375,22.125
1,42,52,54,38.375,19.375,38.875
3,5,15,56,35.875,25.625,21.625
7,17,27,44,23.375,22.125,20.375
1,42,52,59,36.875,22.875,42.125
6,12,28,45,24.75,33.375,36.375
4,7,39,50,17.875,26.125,25.625
7,8,33,50,18.375,29.875,24.375
1,41,54,64,32.875,11.875,32.375
7,33,39,50,18.125,26.125,25.125
10,14,31,55,29.875,37.125,32.625
