30.10691958 51.52561554 28.34473130
51.23900028 89.65560569 44.17405974
79.29854645 53.45666249 22.71102758
70.55856494 58.16360458 26.43121523
56.20815213 66.97129138 37.56265239
70.65771572 24.32113661 39.86447010
97.41024442 65.40484565 37.80434208
50.73599251 37.20541472 32.27448018
75.06981473 105.50782088 48.91578551
62.26059381 54.06607107 33.31284793
49.99247165 71.13472891 22.64593858
101.96523994 35.47197018 19.05570515
82.89605785 59.43813822 24.79926509
42.81192951 66.93931372 29.50902464
108.10247483 74.50262414 20.17471065
98.64825294 71.27235395 29.65415026
53.04855313 32.35173326 29.86243050
33.16101134 49.11802274 23.18363479
41.31369171 48.53791492 33.77369755
43.49588559 55.67956426 13.79709482
53.05672155 71.98220768 15.48384629
94.25475559 24.97457219 30.14093469
72.58254351 81.34723819 33.06116210
71.06593509 40.30482391 24.76830578
113.65556167 97.27488555 23.17597407
74.37481601 53.18329143 21.19971224
42.92243703 85.41629241 44.80943171
58.44526211 55.21477764 10.46182637
94.61923937 78.75972885 31.47661217
83.08661490 63.89755634 20.25889460
62.11243963 82.45892552 24.79082078
109.69852962 65.03389864 21.91109530
79.06506499 75.63813049 23.12010388
82.77023806 105.65130055 46.23842075
82.07028763 51.77718301 26.58857225
103.96522074 68.31963239 26.08042563
67.79854255 25.54180854 32.44662772
62.96333982 39.19894958 16.72244132
107.94407379 98.41745767 28.21246976
76.47027160 45.16978269 18.16052194
80.31128025 42.51835884 31.80463671
42.22341260 35.53624848 36.64992696
67.57316604 33.13492663 32.18187057
106.01691985 63.96813007 26.91203148
79.96672682 64.30450823 24.86644509
50.23215295 78.49020870 44.41882445
107.65031554 67.24731240 33.15767255
46.20204950 56.69541376 18.55494932
51.64968154 69.98107402 43.58615447
42.18001365 31.02991085 46.40298600
67.66356177 36.18366788 20.43380418
96.25109329 91.99855183 31.53544930
49.96520453 36.19031914 19.57367871
37.02985504 43.91333848 33.16862302
61.28560994 49.61015405 18.05071785
90.86962048 58.49416187 30.63473341
97.73231982 110.44520349 33.86624040
91.88783374 47.00641185 33.08058286
67.02476612 61.81551131 33.79406364
63.09315987 88.46330629 43.99807915
85.84886880 97.86173966 45.59299610
42.14182365 77.02058128 45.75025961
48.78390845 60.57870406 19.04411878
51.68341309 80.22337581 31.96812092
103.91086769 19.95364338 30.83450153
72.33179844 80.59327429 40.05572790
55.78997272 49.75242797 17.03845319
30.43871132 64.92119359 30.03380417
49.88202674 41.07065064 16.44036740
36.38067012 77.74848923 33.83957281
45.79374203 64.93095018 14.05173519
41.71006393 41.85107615 28.23683689
98.27527160 27.63037001 36.69516852
112.53551420 90.89993317 29.25748752
48.24733376 84.13506872 29.90120213
92.54869496 32.36752703 39.19950165
42.85242850 44.19341119 24.92368842
49.58580454 88.45503559 37.84961932
47.48871693 60.88234328 26.56745192
107.03713733 76.52453025 32.78315544
67.12483979 83.75128380 34.16184568
55.41654100 70.64999343 29.63477566
96.66684004 43.80189578 22.78189281
40.07442992 38.77978300 22.88114265
55.34094891 42.47216771 21.01067277
76.82592866 34.00636088 26.77662976
87.45156997 112.19318172 45.32270918
107.37000587 69.59114764 21.73485992
58.50213839 91.22734189 48.36659223
60.47172664 35.79008658 25.52985474
82.73795363 32.91678621 38.65980728
47.17442747 75.17879131 26.46270190
74.00182237 47.18298559 35.17844336
49.20814817 29.62588006 26.77123257
71.63730568 73.03470697 25.66087367
46.91379783 87.64255012 42.59436493
68.31126883 61.13086847 39.83465943
33.12919037 57.48551459 37.69654973
99.82488856 48.13507538 33.72281349
96.18245835 72.30723312 34.99023730
45.24899923 75.11279184 38.34524150
99.83474948 91.62498522 26.14739662
96.85502197 14.32773684 32.15560924
56.47160155 30.52856405 34.32288550
105.04691392 31.86278520 30.65094707
38.65193033 74.18762655 37.96203358
30.79047890 62.10468094 55.31898294
59.66584124 34.07052624 28.34225474
66.33074124 79.70715756 36.35037072
61.02202681 39.68491679 32.13245492
51.41272735 53.84416063 36.01569849
53.77524646 43.81317350 13.92049013
82.45494444 72.32240628 22.71259374
70.94090616 77.17955016 27.73712645
73.65473635 63.06773771 20.75115828
93.17384087 112.75799764 36.37021602
43.82215269 70.33206415 44.63007116
78.60949755 76.13257725 30.70008271
36.63376311 35.41298603 34.44284731
80.99764235 101.11173914 45.52372909
67.36704294 86.69141796 39.53250012
94.96083970 37.63372405 29.45316681
103.76151660 91.30859407 31.00609605
60.12863782 67.37705052 27.23767220
68.26683410 77.53182804 29.28923619
60.88212349 72.65940625 39.13273062
80.44019769 81.10516886 43.85288804
76.17241909 38.00142987 42.56352264
77.55058725 67.31205924 48.34160842
62.53024476 45.53074629 19.79658528
48.18060376 77.26595090 58.08275466
40.95262843 58.24524166 20.52375089
70.39327912 83.37111168 27.45907518
79.49642901 55.08695319 17.06151219
49.02453841 86.34684470 33.42824962
62.82382034 90.66419668 55.48820942
63.88838055 63.39964414 25.35613846
60.50521252 41.43645882 22.04168881
78.38227423 102.47418782 47.00334263
35.92632065 62.91496378 51.76230193
28.30212062 52.89406398 33.68059201
110.19820542 95.24425759 32.67456560
85.24278932 69.88338728 33.90732954
91.43386093 64.41578958 38.41761214
90.44157904 36.59990069 25.97812482
44.05363814 33.79565398 24.80617011
87.33036629 35.95125993 32.28993912
44.41777102 84.57934203 34.36388213
45.48328270 79.34899177 24.73971802
54.62193670 52.84760174 10.78874270
109.66211642 93.48249275 24.83266928
73.70934418 62.38996224 15.03566959
48.38583363 42.22225764 45.50327792
55.86774142 43.82233842 38.33364396
39.20201639 66.66760159 19.00004772
101.43381725 72.92641500 25.99405296
43.46066451 73.69733232 28.16931763
66.29043132 60.07854994 18.31813027
53.62083584 77.70669942 42.40490422
44.57945059 28.16854209 36.36979775
75.05626868 54.79386269 35.53607739
100.24904020 78.45779601 24.81091087
69.97157085 45.49156599 22.14613749
59.25045703 86.22474245 39.14256272
114.09652906 91.76444461 25.60233809
95.59389178 29.87985424 31.90598010
79.44622388 79.65405565 26.76730687
72.45893837 33.84996369 24.36197143
70.03984611 34.78969869 30.11793710
94.65469571 72.23859515 40.76386894
38.94208652 71.92816395 33.37162012
105.19235725 38.14988174 31.99781808
57.35564623 24.06773389 36.21700998
85.01743011 62.82116931 29.27257584
78.20549875 60.86714776 17.02698835
47.42507944 32.11359661 36.98504280
66.29244280 65.59212458 19.73042317
89.20921624 39.64103356 38.98782951
56.83607611 32.84214955 30.78714762
76.33918154 36.18761693 32.82780659
97.54600626 103.85543116 37.73610968
51.54719248 61.43323968 11.38198954
82.23231255 82.41986037 33.21527449
74.81299060 80.02974277 25.00457208
73.71041437 32.78422316 36.53973000
105.70115277 85.11998649 30.09773906
99.20430237 76.32592405 40.87960742
81.84422670 75.72812881 34.24982790
104.63993333 68.02328482 34.96855157
45.07772491 68.65361563 21.97667675
67.60331592 44.89731891 15.04144728
34.25518650 48.82084967 41.20081083
69.11664108 88.75677573 33.93617322
70.79730186 58.68889790 18.63711812
55.02875439 73.45987567 25.37900954
34.56914027 77.76857717 45.47454616
73.24969810 69.42937420 22.33528402
73.50965931 57.59303703 40.92928040
62.66628611 40.86583956 46.33797766
114.08904645 105.29387726 29.77621514
73.56795570 70.33285455 48.17406085
57.70970717 32.46589357 46.66852819
75.65681835 53.52163528 42.34358083
28.83920674 64.33173748 35.70911797
64.95257072 36.28024973 30.21827372
43.56100663 56.27431823 24.42287595
45.21013401 62.51174271 20.66487349
93.42222146 40.45530556 24.02023301
50.39175604 67.78211257 26.96832417
95.58580031 42.32278474 30.33006396
42.03723641 73.90795497 31.45990353
92.51733195 38.16787545 32.36459699
40.88565019 44.49782456 39.19017882
57.16375003 72.24908684 45.11091467
77.32761900 50.31824544 16.75076775
101.10104413 86.16353783 24.29083012
72.61345694 49.83801610 28.77327006
66.10396721 43.52992672 21.57393422
36.06375143 68.16456415 22.23914518
39.48210957 80.77147021 33.93432635
71.63309521 29.69341589 27.71386788
37.21711710 61.14300667 18.76151971
48.39640407 32.60483937 23.77722703
55.08710309 54.64906717 23.17187942
57.56428365 70.24467930 52.21450274
88.34043236 113.76506837 32.70313123
37.86872552 47.02335869 26.92484400
84.99460291 46.62792147 23.51948264
59.80996203 67.61288995 18.86163773
106.03726272 93.83898319 30.93375129
59.94164124 89.55379208 34.64312179
61.10886224 49.16671454 31.33859142
101.96648262 29.24876044 32.92422240
66.17931941 32.00144659 40.42766977
72.16564868 66.33424546 34.93374784
66.42484982 52.98294957 16.91855051
33.78089750 38.30482672 40.56043155
38.13494731 54.92284700 23.25472636
103.71044478 81.68304455 37.05772626
89.21761828 20.12748989 31.28997493
48.23946926 72.23922069 42.42310978
91.87777878 26.74891364 34.72437920
93.21234146 85.65400112 44.04958479
57.15226004 78.51343745 21.46586390
62.83676847 76.04587702 18.74712380
84.34341755 71.49376217 41.40760672
70.13047012 41.21049145 31.96125792
111.56230571 71.20032257 24.07315187
71.95765389 108.76651392 55.23192051
72.00652721 67.69481796 16.32706394
35.50727173 73.56955159 28.46674299
46.28835638 59.81648653 12.85507439
87.04729440 65.80666285 24.72816202
50.29971142 41.17426103 21.74889475
76.94834931 114.39166773 48.31082005
34.00155623 56.16011370 43.57267858
78.86143668 86.50598953 38.16372059
109.40069154 52.30112393 31.08232526
58.51590479 59.15625302 10.71795975
64.26285836 55.94459263 11.60451200
74.08908187 37.09086627 22.48337118
36.74217048 56.54774399 18.22196663
58.98583007 86.80858183 45.75064155
79.33636170 61.30910976 36.83478194
34.39668816 47.75410427 66.03836882
100.93463796 108.23710086 36.30440777
103.37600924 38.94869809 23.23414992
52.70939122 63.90683075 23.57931754
88.06939013 59.10167398 24.06211114
86.46174875 54.87188010 34.52305519
94.47257009 34.10419790 21.90785692
56.71200042 81.93214353 31.00114271
58.26652714 45.63259476 18.55630527
45.71851232 39.12299643 36.38755270
68.85558751 46.92041724 29.61078920
30.57715552 46.83939033 47.62630312
95.12608996 27.46919781 28.38055848
34.47268246 55.42504202 29.78957621
113.95665057 76.15609575 16.51508705
64.82969341 60.90736141 12.06093758
62.96751481 44.56563566 14.33976644
70.88021548 52.86793416 13.48115916
96.15487077 92.35608313 43.31945973
103.71598179 90.47075756 24.22999281
56.46704296 75.72583949 17.78414127
97.03102416 39.56733627 38.12951157
83.75423208 49.02804474 32.10922198
92.75645313 108.72161096 44.31202676
61.60984323 63.20358364 17.70460508
113.43423431 62.09164232 30.72786742
72.74492315 37.84414751 31.53076161
33.36678057 39.16432284 33.78847854
42.87600556 69.18363158 37.84587694
58.73764155 49.06008130 11.87381437
83.17243728 59.61737005 19.46530041
70.42644606 52.87107094 20.03239628
89.97478047 65.84211960 29.80939591
80.81925818 47.12908039 26.98354974
84.80868354 55.96892913 28.36027924
65.52982550 73.55975812 17.52306300
89.45921271 31.29667467 26.76213836
91.51617162 33.04352164 33.26402148
100.18014648 23.62499240 33.27224781
82.48656636 68.93022615 21.84164225
54.31841482 87.90832506 32.00672671
64.10344365 30.11042053 32.31629201
62.74129387 23.26010820 38.71312775
34.19055257 64.70558555 23.79658591
86.60947578 62.12195076 34.12635767
63.62166234 33.84450766 21.38642861
62.13834885 78.19880520 53.11035817
44.59903377 59.29915404 42.33677393
56.53099412 68.83779214 13.64504246
78.09066681 77.60896608 43.49401287
113.48317780 65.83670662 25.44245804
55.22068740 76.99448183 27.74481809
66.21543858 89.59853109 34.90171746
42.20356341 48.85835221 50.36500267
38.07392348 67.21121422 27.25820524
56.60530797 63.35761582 28.03613307
80.77059042 113.23063912 36.88987035
35.79028636 67.64684999 36.39566103
71.10267171 85.98423881 29.56064645
51.89296925 43.10964946 31.95987029
62.97451307 39.28486682 23.58519097
67.03950501 49.28506113 18.94279592
78.86036684 106.20816351 42.47665114
48.60333806 75.04077779 19.42948058
28.05860991 58.73358379 33.52868895
108.68149329 71.74538360 32.31206018
48.79360185 67.59751355 35.72105969
54.70936456 38.41611144 31.05873684
80.06404186 68.95001602 35.52905238
52.15246657 32.84499574 22.34601084
87.67996229 71.41934290 28.03490399
42.44970875 31.32022459 30.51751035
49.76557400 36.57287067 25.47882873
52.53563708 47.88906440 27.75004172
33.27696410 54.64259423 21.72361463
38.06298311 59.47052910 24.75682300
67.49236185 71.00772661 32.08365042
61.63374749 57.10204836 51.68924769
70.65692335 113.00938933 57.43883219
37.99234306 36.77971621 27.96293707
54.68461696 89.29515366 53.20886308
92.34945766 15.92340859 36.52882303
41.95632236 63.62970789 23.45815231
59.62368440 39.27064279 35.76136686
66.29846188 58.19502816 26.06958219
36.13334373 50.43330838 26.83554843
90.16956414 99.17931212 48.46851980
66.57924085 23.14869319 45.56006884
55.37829142 38.61437677 17.00370692
105.58434227 77.46523361 27.30818188
58.60923737 45.58658369 26.36150604
97.72506458 85.96880642 40.36063575
73.81271864 42.20934710 44.23477118
91.05965700 42.80083996 27.09077176
71.74064181 25.72852145 35.80380474
61.10663778 53.19851394 17.87984435
87.82642119 75.83587703 34.86783444
73.38823870 30.80725429 42.40457717
51.16554810 78.38208510 21.69317304
57.21881116 50.14487781 24.94589094
76.77614989 55.96688323 28.08496341
99.89256787 42.57354048 35.80185062
68.51538050 70.49246215 24.20345375
70.69782126 86.41018455 46.03992175
39.74881595 43.87595767 19.94711231
42.92220712 39.12590603 20.41368711
84.21858561 42.45962546 26.72194483
112.89869111 92.72442139 21.68675642
59.17161928 91.92021321 42.22318789
44.66622903 83.11690755 58.30659972
110.79166761 79.97420268 19.75793582
50.31372286 54.82772016 57.09574926
66.85765371 72.23199506 47.24747588
76.91209152 112.74759084 40.73693283
76.85566000 40.44556423 20.95808090
109.90715214 91.69334540 30.08515982
85.65546621 104.48654110 38.15024696
43.33182166 79.32666227 36.89208246
57.39377602 55.06205683 16.55021070
80.08059054 68.79703875 43.87304748
52.73413288 47.47301827 19.60532914
75.98992763 46.05482478 24.44926067
51.68814234 63.22161277 31.27146444
114.56434142 76.99530004 21.69467457
58.25993950 84.42927767 27.04592466
98.41652931 31.18559373 20.62223008
79.85001426 59.86288359 31.07446213
59.01349972 30.53918184 37.62775056
80.56358810 71.20325662 27.51019680
94.37435376 90.62056075 38.79515977
68.13254116 81.31672965 24.23491375
70.48412412 63.76848221 24.03136160
98.39914494 37.37207511 24.64351790
44.46802410 50.51811937 14.08425533
67.01043727 50.96810381 26.56948555
46.62916731 64.38388061 33.12221839
100.04477151 25.82463980 26.92104347
57.58427113 46.36608841 54.66440357
29.65293661 54.19760722 50.61727052
33.70167477 61.32135390 33.52926140
54.70137385 35.90448141 25.53607524
58.07809978 34.52649449 19.96143210
42.73951990 33.50186362 55.75612854
112.57703243 57.65987824 30.00133720
40.74886264 40.15573887 54.20449474
52.32332083 25.37993180 34.35477322
96.87445804 112.29522416 41.37787990
71.61846831 72.28494267 18.08920758
72.29404372 71.06036653 32.40582671
77.11907315 84.22533481 30.93278275
89.06844764 49.08037605 37.79828864
106.45890996 71.48641518 28.42054563
72.90116479 80.98111864 49.21280160
92.82530571 23.35940887 25.71367160
75.36335587 29.65270858 30.98603456
59.78975680 87.32307926 30.67486299
59.99656355 25.49702359 30.92353108
42.45959118 67.14605751 17.04420758
80.74630715 33.01094706 32.85612677
28.78155211 60.28647894 41.32677784
41.17105020 62.31634250 32.41061495
67.22458725 82.79180946 42.63588109
64.80243033 85.65956709 28.92298084
93.87461485 87.06687973 34.91993197
99.49278651 54.68395054 30.91175407
50.92471987 81.71770838 25.24662788
110.08471679 64.95237972 33.62354645
81.12345393 37.69438909 27.31839654
49.85985571 41.08565373 39.19107216
33.27017011 41.50284594 29.72152978
64.90081352 78.46288498 29.45904747
78.55308033 46.54422521 38.20658621
56.88719487 64.41062240 11.86069885
48.29443052 79.20406399 34.04941845
90.30514446 102.43284244 38.89284057
62.05349425 27.17840987 27.61360082
39.84535303 71.85987348 21.48091485
113.77054940 81.27592210 18.33575905
60.83096173 57.78129416 16.18358098
48.99447991 45.93648677 13.70512881
71.77581528 40.70900609 18.64658489
111.72743548 97.78491431 26.09697506
112.43334964 73.10290695 18.21909179
74.44369258 57.36751590 19.62238130
29.34769820 48.36974492 38.29495933
73.13759375 48.34096970 21.65704978
91.07277415 80.98190070 45.17858736
78.64785907 79.55495450 36.38854782
43.13337655 36.75922438 31.11328042
65.87231847 68.88958466 14.90135995
40.57257904 69.13112748 25.35440556
34.78923011 47.80727970 33.69215999
40.42474140 66.12041190 63.25212326
99.95708315 37.28692203 28.77050692
52.73273934 38.46872886 38.47867520
40.29846955 41.38485618 32.93981874
47.03139628 76.88280397 30.91262972
46.98646875 46.22555497 19.32428666
73.23677603 87.94281285 34.08952944
59.39640158 76.47265578 28.43354861
101.53788190 84.44104971 31.81019122
48.04894142 50.60059190 17.32778101
80.54532252 42.42947666 21.94761589
75.96138291 72.49074389 37.33687424
86.45680409 41.67909485 40.13587563
66.36485852 56.43026164 18.34059091
96.68415936 88.33546676 28.64156372
67.91265630 31.63896744 24.26002347
48.38280966 82.80433384 39.10088379
72.33248422 57.53364409 13.70946421
47.24984337 54.15469773 43.27464339
30.58256530 44.21891760 34.60631546
53.46476001 42.33685968 26.84314827
78.68070659 58.54727103 22.53954656
85.67326803 42.51311944 32.46601300
56.30952750 60.09463448 15.63541087
56.74209360 65.47765872 23.30841902
77.26279508 72.27749574 20.17882144
63.87134221 72.64984581 49.90875113
67.23665154 60.55247107 49.54563801
72.31081375 54.87392719 29.25024452
57.02212828 38.76724860 24.56824023
67.57565625 65.34026401 28.64284386
81.28785874 41.90997108 38.03348921
100.35691365 52.56244135 36.13513707
53.13167147 52.30198553 16.60626013
105.72475589 94.17750761 25.44018711
100.19817619 44.56079935 28.99713731
51.68887840 49.99308342 11.69156712
88.30512925 49.38077935 29.70088348
52.57827433 62.70163915 17.03607550
74.60724147 63.08477484 30.74823202
68.77955464 76.92285102 20.92652186
43.04653937 84.14665378 49.81247553
114.59474825 73.48788974 22.60543476
47.00020322 26.91441941 41.35786935
48.36111429 65.83114098 18.85780242
90.55364646 69.64504028 35.06845128
51.22431159 72.76524032 38.02203918
55.44242373 23.87405179 41.53580371
52.32380135 68.30584946 19.24005569
80.36887095 65.78072863 31.97062863
68.32830325 40.01663163 26.06646945
93.37710357 77.97912355 38.85376562
103.69572808 93.34775880 34.07765469
46.78661977 44.88886463 40.07722443
40.17952693 54.49405607 15.95562415
97.08492362 74.68150482 28.97064640
31.76203859 46.48490803 26.94135035
54.76026578 89.84325351 38.25247782
76.58656971 65.86610774 24.10241074
71.12541438 75.53487163 36.52583749
73.02514357 43.43028456 24.53840058
101.13686005 98.30873591 30.98589438
82.62701295 97.07769462 50.33495936
35.53071436 42.90020905 24.18197763
74.98613552 77.91719821 31.04545970
59.74034693 71.50341121 15.07496288
87.79859658 27.73990518 30.00315353
63.41810147 43.90667814 29.29937908
84.38150807 67.93853962 29.01296568
33.22797166 69.81769612 28.68361832
94.18392329 27.62588036 23.54519718
50.47892976 55.55624204 11.45754876
62.88172629 51.50448865 23.78209198
59.48075418 42.34886272 14.66872749
30.63298533 58.93604635 27.12512215
75.41402187 43.41259096 30.50997031
105.88234770 85.37330496 21.46244906
49.04857698 60.08376910 41.92949971
74.94479977 41.78592593 37.98070540
97.93529540 49.32899923 26.55173708
92.76694359 107.28024010 34.35105795
94.67308422 49.30175694 29.17347053
69.53248528 63.54584375 14.17168003
113.36355650 71.19617666 28.72697179
48.23469768 41.65706740 27.98021760
61.17155430 59.06718368 22.06033470
46.08852385 37.79463365 26.01140820
32.57937612 41.61541007 44.02393292
41.20930671 51.81458187 29.95093924
48.04811220 46.91283234 24.54249206
45.29535557 71.67286689 24.30127064
99.74235225 34.68575235 34.15114105
42.92430764 45.40327909 17.01044345
94.02616914 22.77625307 33.41243737
86.26192514 52.95074751 22.72026955
72.91339937 60.82665507 34.06110916
109.48235090 79.04707998 30.88569916
80.58828776 113.47517324 43.66321428
65.05188038 74.98352022 25.09442568
73.49059492 75.73301124 21.06326167
64.63221819 69.86032889 24.96807140
45.70339858 51.66156177 38.14615666
62.39405782 91.15517199 37.67070422
51.65511748 56.25095830 16.92873938
47.13921967 71.14403714 16.73645895
56.08766447 59.72736147 35.31075243
89.71584641 109.57552165 38.52133127
113.16028520 84.67752987 25.92898153
54.97152120 25.77244799 55.97517146
95.64438811 99.68387924 42.74296636
114.14115918 68.80357431 22.59136773
39.17765301 75.42736554 25.78328485
55.49259838 71.71688961 20.46487153
75.36382344 68.01800033 29.51424978
68.50852374 41.51373182 16.90156084
77.22968157 66.99441855 18.00220001
77.31909833 41.26356096 27.17777966
100.89512135 95.30564716 27.67541032
40.46702964 60.10451786 16.29619418
31.64478141 46.82741009 54.32341552
42.39023992 80.52534259 29.08413917
77.70918358 49.76404541 25.14152481
48.35113353 29.15108299 54.43146795
37.26804445 78.59689723 49.55905543
47.11637397 59.44053744 33.54988436
55.53506974 29.63488389 25.11948821
61.88009558 65.56893191 12.62561287
61.91601465 62.24848086 32.38874833
60.50687580 57.42876104 26.58882191
63.51738666 70.20339528 20.28742880
68.23508878 91.53629376 51.92249709
67.75471764 43.70700511 37.47939998
80.04692539 60.84936950 43.87394226
38.34832747 80.91292899 41.39039004
32.32952475 72.25614488 34.67750006
39.25102983 56.71625759 29.15747770
84.01664695 76.43628830 28.46147828
71.37292128 46.84708702 15.62072650
61.11519531 84.53596044 35.27960097
77.72070070 100.50677078 52.33917645
39.15357720 46.85190788 58.57411008
55.75723510 64.87262920 17.43492779
36.07263796 62.53853414 28.76455816
72.69745841 90.04004203 39.83853780
38.99079270 61.07943497 36.94399348
101.77731079 62.14384205 31.39484830
104.45364278 39.77312003 27.29676948
62.92995341 79.60664421 22.29980468
54.20029344 46.92621730 32.64285288
74.69509635 110.33112241 44.61439874
53.61359733 84.92947115 27.95548073
54.59522724 83.98027145 34.36107172
98.68733203 40.57846504 20.66154657
111.59530803 62.82566066 27.22422326
52.49452223 83.65964537 38.39692729
33.66308345 59.30857176 21.47006352
98.05555953 48.97518453 37.98222126
59.31328636 30.38208163 23.94156715
92.96471813 81.90219940 36.78752769
49.21106474 51.50220887 22.53254064
85.51808628 59.54044588 39.63604684
98.20736448 31.47595198 27.01286443
36.14295918 67.33490298 31.91152166
64.68346996 49.68396527 12.36483260
43.17024853 52.54391873 19.85181095
65.54613254 37.78483693 27.12204147
61.79148764 80.22491543 30.97451479
82.14479516 48.71949366 20.00142021
94.76895253 33.49211957 28.59857957
50.59194295 27.40939430 30.31976880
54.64785215 73.15323786 33.29039642
56.74972157 81.03384592 23.95603249
113.23803008 87.32365805 20.43135605
55.87392779 78.07213331 37.77316296
104.77573841 94.52877476 37.69344433
61.70385747 32.74877614 33.39879689
59.63781333 73.09072939 23.67465278
90.17352857 74.38036982 43.05512627
54.38641724 33.33194615 40.85403261
94.84596602 84.82173163 30.48093329
54.05648061 58.99329806 23.06378752
50.95577701 75.07164560 25.64349516
48.97883733 32.85752452 32.60062384
73.79884785 61.29895808 46.52097552
42.66521217 75.34791405 23.12872154
85.08565078 65.73602328 41.60864262
46.48082838 40.23196720 17.73721273
49.19597274 26.50954196 46.82608531
28.84590609 52.89190377 41.64589801
94.39672196 44.63676542 36.47067191
75.66469863 74.02115471 26.70751895
62.79020822 70.32877537 32.06280932
42.28656661 49.87743031 23.97552940
50.99487050 66.56164926 13.01645853
36.88396613 51.54402075 18.94777212
86.67261863 27.00175048 41.01366949
46.22292386 41.91647513 22.45815526
51.46505292 78.14275050 28.80676036
63.30851172 74.96874035 36.03746536
104.54478970 40.34593883 18.91633060
63.84151218 30.15706636 24.81572290
35.05914489 66.90957283 61.28611778
112.11379708 54.41384535 31.28366320
43.13798248 85.10643334 38.65863016
55.98523526 67.03333870 32.39895838
38.38618072 48.36239834 19.04887604
104.85251524 51.45842363 32.84885445
70.49025582 30.62710333 35.12826252
60.72717120 77.58694471 43.57067999
67.21099750 28.35474088 27.35825397
48.39526348 71.14845241 31.05511863
57.16562648 80.36310585 49.02099514
