4.221349863999999741e+01 3.525467591999999684e+01 6.000000000000000000e+00
3.558796815000000180e+01 3.378233580999999930e+01 9.000000000000000000e+00
4.473751024999999970e+01 4.072336775000000131e+01 5.000000000000000000e+00
3.800681260999999722e+01 4.082853490000000107e+01 6.000000000000000000e+00
4.925969772999999918e+01 3.735801893000000007e+01 6.000000000000000000e+00
4.273933439000000334e+01 4.545588953000000032e+01 4.000000000000000000e+00
3.706030825999999934e+01 4.745406539999999751e+01 5.000000000000000000e+00
4.057684414999999944e+01 2.833180837999999824e+01 1.000000000000000000e+01
5.031136923999999766e+01 4.261637646999999873e+01 5.000000000000000000e+00
3.043477775999999935e+01 3.851485758999999831e+01 1.000000000000000000e+01
4.578918175999999818e+01 3.409783725999999859e+01 7.000000000000000000e+00
4.757702332000000212e+01 4.987290986000000004e+01 4.000000000000000000e+00
3.495696524000000238e+01 4.440421803000000267e+01 6.000000000000000000e+00
2.706942894000000166e+01 4.387838227000000302e+01 1.200000000000000000e+01
3.180195072000000067e+01 4.671789533999999833e+01 8.000000000000000000e+00
5.052170353999999719e+01 2.820847682000000134e+01 1.000000000000000000e+01
4.673568611999999689e+01 2.915498118000000005e+01 9.000000000000000000e+00
5.462322241999999761e+01 3.493917446999999754e+01 8.000000000000000000e+00
5.430772096999999832e+01 4.903157266000000192e+01 5.000000000000000000e+00
4.957519918999999931e+01 5.397442874000000046e+01 5.000000000000000000e+00
4.284450154000000310e+01 4.903157266000000192e+01 4.000000000000000000e+00
4.894419627999999989e+01 4.535072238000000056e+01 4.000000000000000000e+00
4.116182712999999893e+01 5.197625287000000327e+01 5.000000000000000000e+00
2.927793910999999838e+01 3.514950876999999707e+01 1.200000000000000000e+01
4.231866578999999717e+01 4.261637646999999873e+01 5.000000000000000000e+00
3.895331697000000304e+01 3.641151458000000218e+01 7.000000000000000000e+00
3.621897105000000039e+01 3.073248844000000091e+01 1.000000000000000000e+01
3.274845507999999938e+01 2.915498118000000005e+01 1.300000000000000000e+01
