540 2 344
574 3 204 252
239 4
729 5 80
630 7 303
550 8 944
662 9 1733
316 11 86 966
450 14 1449
588 15 458 1662
708 16 393 1574
835 18 878
551 20 463 872
508 22 493 1437
493 23 48 171
889 24 1033
1024 25 1267
150 26 848 1208
1017 29
247 31 691 1548
984 32 1357
419 33
413 34 690
892 37 264 462 1038
901 38 1359 1374
549 39 1433
241 40 1051 1355 1641
936 41 754
152 47 1115
517 50 646 770 1341
649 53 925 1505
159 56 834
211 57 782
737 59 1304
1038 60 675
427 63
864 65 680 929 953 1025 1156 1410
536 66 448 779
599 67 751 997
920 68 1045 1596
347 70
167 71 350
641 72 631
949 74
416 75 162
75 77 673
435 78 1273
254 79 1159
879 81
336 82 1129 1386
381 89
628 92
79 93 1006 1240
384 94 97 554
320 95 1284
537 99 1656
810 100 1204
921 101 549
43 102 423 535 1642
844 105 1325
233 106
46 108 1313
261 113
100 114
772 118 1420
832 119 281 1364
327 120 308 838
465 121 830 1210
693 123 498 959
873 125 160 1021
661 126 394 1745
546 127 720 768 1144
523 128 1206 1492 1570
695 130
723 133 165
690 135 621 1332
1037 136 1694
18 137 400
500 138 814
646 140 260 299 828 1348 1518
884 141
425 142
898 143 1225
250 144 803 1597 1681
987 145 502 547 1328
378 146 1022
306 147 969
958 148 711
775 149
35 151 571
886 153 1678
609 154 485 1203
179 155 1737
519 156 254
491 158 389 568 695
665 161
581 166
324 167 1271 1485
755 169 1168 1230 1719
76 170 1001
857 172 1020 1291
460 173 327
706 176 653 819
552 178 532
935 182 1008
426 184 521 915
981 185 575
580 186 818
675 187 1533
158 188 1688
40 190 562
925 191 1584
439 192 662
367 193 1358
31 194 203
375 196 531
937 200
721 201 328
492 202 796
120 205
990 207 1686
271 210 1306
361 211 1530
781 212 786 1011
498 213 272
489 215 541 1651 1743
509 216 1609
368 217 340
390 218 923 986
664 219 994
65 220 717
180 222 277 1193
436 224 577 916 1476
483 227 422 688
956 231
166 232 1478
933 233 1157
587 235 924
557 236 1563
985 237 270 1075 1281
819 238 676 1185
356 239 1130
701 240 1679
149 241 1680
482 243 1650
761 244 513 1696
637 245
401 248 940
326 253 1631
1006 255 669
398 256
127 257
146 258 1013
830 259 607
34 265 1009
317 266
703 267
598 268 388 432 543
213 269
169 271 1367
585 273 1735
20 274 561 941 1249
976 275 1260 1305 1466
445 278 1188
852 279 801 887
59 280 302 1461
945 283 526 579 1119
774 289
515 291 585 775 1266
769 292 1377
773 293 1012
223 294 812
899 295 335 1369
846 296 982 1134
638 297 715 1049
544 300 628
855 301 849
206 304 1721
479 305 1342
942 310 1121
834 311 1019
869 312 559
618 314 808
30 315 991
555 316 563 1464
273 319 616 904
115 321 1549
45 322 857 1135
365 324 553
194 325 382 996
1001 326 1428
66 329 1114
265 330
1012 332 1282
759 333 862
1016 336 1354
694 337 1741
399 338 661 888
625 341
296 342
878 343
868 346 1040 1392
876 347
248 348
134 349 713
338 351
244 352 889
243 353 692
790 354 1527 1595 1703
114 357 917
447 359 1732
300 361
475 362 731
905 363 623
89 364 1444
548 365 1526
274 366 1296
853 367
783 368 1286
621 371 1424
578 374 404
345 376 419
796 378 1002
182 379 1149 1223 1434
566 380 1124
374 383 599
642 384 1148
136 386
862 391
715 392 1253
448 395 1627
229 396
972 398
739 399 514 530
526 402
627 405 1283
814 407
811 408 1098
591 409 1023 1201 1366
305 412 1575
596 413 933
449 414 1717
615 416 732
221 417 475
927 420 909
21 424 469
678 426 464
939 428
269 429
518 431 1728
794 433 602
681 435
663 438 987
705 440
1035 442 1095
339 443 811
842 451 1179 1459
348 452 520
310 453 611
141 455 1682
205 456
405 457 760
896 461 1422 1560
802 471 1713
786 472 1105
13 474 902
225 476 608
831 477 973 1739
820 480 555 1037 1408
672 483
722 486
511 488
1021 490
499 495 816
654 496 1569
173 497 789
430 499
629 500 854
874 503 846 1232
421 504 1196
1022 506 841 1233
563 507 1683
522 508 1111
358 509 799
888 510 1531
128 511 884
156 515 671
253 516 743 1497
240 517
789 519
610 522 1227 1236 1599
266 523 962 1057
749 527 1672
319 528 1416 1544
409 534 726 930
63 536
181 537 935
577 538 964
39 539
245 540
653 542 1295
633 545 1616
854 546 1418
572 550
900 552 580
335 556 722 1052
469 557
593 560 810
322 564 1250
110 565 1116
946 566 1520
495 569 880 1087
685 570
718 573 1154
298 574 883
190 578 1674
55 581
153 584 945 1209 1547
264 588 1384
856 589 1451 1645
1005 590 767 1089 1199 1612
727 591 777 1186
484 592 1554
691 598 1472
203 600 1307 1388
255 605
668 609 651
282 610
468 612 1039 1096
791 613 863
61 614 1432
1026 617 1308
77 618
71 619 666 1577
105 620
139 622
502 624
285 626
714 627 1653
624 630
226 632
1009 633
208 634 1318
252 635 1183
619 636 1636
118 637 1142
839 638 792
52 639 1137 1716
344 640
376 642 1685
387 643 1125
440 645
364 650 1511
953 652 1720
129 654 1477
99 655 1393
477 656
651 657 913 1698
360 658 738 1079 1704
201 659
249 663 788
5 665 1718
850 674 1588 1592
606 678
595 681 1558
902 682
410 685 736
940 687 763
963 689 898 1621
754 698 1035
346 700 1442
614 702 1552
592 703
234 705 1081 1372
893 706
268 707
95 709 1217
914 710 1270
847 712
828 714 791
719 716 1606
766 719
163 723 1245
340 724 1379
999 727 1523
866 728 756
716 729 1294
539 733 1564
682 737 1404
1023 739 1259
385 742
496 746
1028 747 1041
83 748 1598
456 750 1265
272 752
202 753 1292
497 755
931 757 1192
660 758
259 759
143 761
543 762
73 771
909 773 1153 1262
988 774 1690
343 776 1068 1172 1278
198 778
616 780 1421
69 787
713 790 1528
751 795 1385
558 798
379 800 1639
640 802 1605
270 804 1664
928 807 1345
216 809 950
313 820
341 821 1448
837 822 1254 1463
195 825 1409
803 826
1029 829 1152 1202
308 832 1382
710 833 1248 1699
41 835 1034
1036 836
131 840
787 842 1624
315 844
175 845
329 847 1510
231 852
632 853
626 855
880 856 1635
658 860 895 1602
1039 864
93 865
160 868
392 869
607 870
1011 871 1475
60 874 1406
222 876 1109 1425
12 877 1027 1058
568 879 1338 1504
957 882 1353
648 885 1559
793 886
125 890 1430
204 892
478 893 949 1162
302 894
446 896 1132
472 897 1722
813 899 1214
684 905 1671
56 911
383 912
230 918 1658
948 927
33 934
520 936
382 939 1343
29 942 1736
554 946 1542
8 947 1669
571 952 1078
912 955 977 1399
155 958 1655
542 963 1411 1708
256 970 1491
62 972 1568
827 975
391 976 1143
757 978 1279
1034 979
485 980
553 981 1465
4 983 1447
732 988 1268
417 990 1361
332 998 1244 1275
833 999
996 1004 1581
559 1014
657 1015 1184
961 1016 1715
463 1018 1633
979 1024 1413
6 1029 1118
768 1030
188 1031 1319
1003 1036
740 1043 1340
771 1046
91 1047 1334
389 1056
351 1060 1241 1261
212 1062
983 1069 1329 1394
528 1072
734 1073 1133 1583 1586
288 1076 1731
686 1077 1083
432 1080
792 1082
954 1085
602 1086
904 1093
849 1097 1213
408 1100 1462
807 1103 1242 1365
532 1104 1529
210 1108 1235 1297
349 1120
726 1123 1170
565 1126
982 1139 1673
113 1145 1571
333 1147 1482
576 1150 1579
560 1151 1378 1701
16 1155
913 1158
328 1160 1643
836 1161
123 1164
932 1165 1363
104 1167
314 1169
797 1171
534 1174 1498 1684
372 1175
455 1176 1189
601 1181 1659
760 1190 1509
647 1197 1593
816 1198 1693
473 1200
612 1207 1541
494 1218
978 1221
87 1222
81 1224
998 1231 1238
454 1234
51 1239
631 1243 1649
130 1251
132 1255 1726 1742
297 1256 1615
911 1257
312 1264 1426
235 1269 1298 1582
420 1272
504 1285 1546 1670
48 1288
533 1289
733 1293 1401
471 1299 1456
689 1302
915 1311
28 1314 1689
763 1321
218 1326
1007 1327 1335
784 1330
744 1331 1435
474 1337
818 1344
357 1346
986 1349
561 1352
111 1360
865 1373
965 1376 1556 1634
910 1380 1724
720 1381
962 1383
590 1389
872 1395
823 1396
22 1398
765 1402
215 1407 1512
725 1412
908 1423
569 1427 1551
501 1436 1628
676 1455
748 1468 1557
756 1469
643 1470
67 1474
635 1481
800 1487
44 1489
434 1494 1729
122 1499
165 1501 1667
433 1508
967 1513
980 1521
752 1532
88 1534
584 1535 1550
373 1537 1626
579 1545
875 1553 1611
189 1562
1027 1565 1695
788 1567
10 1576
922 1590
162 1603
636 1622
995 1623
620 1629 1687
1019 1632
964 1637
157 1646
267 1652
80 1665
975 1666
930 1677
669 1691
112 1707
801 1709
142 1711
337 1714 1734
251 1725
323 1730
861 1738
